shopin server credentials
=====================================

mysql password: shOpasdf87sdf@dzsg

database credentials
----------------------------------
https://shopinnbd.com/pinikk
phpmyadn
	username: pinikk
	password: shOpasdPaddf87sdf@dzsg
--------------------------------------

command line
===============
// root password
5c90911f231sfsaw23$9c8a2a13

// root access
ssh root@167.71.233.21

/////////////////////////////////////////////////////////////////
shopinnbd digitalocen credentials

email: suvagoto_das@yahoo.com
password: Bangladesh1971

//////////////////////////////////////////////////////////////

Shopinnbd domain (goDaddy)
User : suvagotosuvo
pass: Bangladesh1971


